<svg width="24" height="24" viewBox="0 0 24 24" fill="none" xmlns="http://www.w3.org/2000/svg">
<path d="M19 5L5 19" stroke="#A0A5B9" stroke-width="2" stroke-linecap="round" stroke-linejoin="round"/>
<path d="M5 5L19 19" stroke="#A0A5B9" stroke-width="2" stroke-linecap="round" stroke-linejoin="round"/>
</svg>
