<svg width="68" height="9" viewBox="0 0 68 9" fill="none" xmlns="http://www.w3.org/2000/svg">
<path d="M66.8896 4.86088C67.0849 4.66562 67.0849 4.34903 66.8896 4.15377L63.7076 0.97179C63.5124 0.776528 63.1958 0.776528 63.0005 0.97179C62.8053 1.16705 62.8053 1.48363 63.0005 1.6789L65.829 4.50732L63.0005 7.33575C62.8053 7.53101 62.8053 7.8476 63.0005 8.04286C63.1958 8.23812 63.5124 8.23812 63.7076 8.04286L66.8896 4.86088ZM0.50708 5.00732H66.5361V4.00732H0.50708V5.00732Z" fill="white"/>
</svg>
