<svg width="70" height="70" viewBox="0 0 70 70" fill="none" xmlns="http://www.w3.org/2000/svg">
<path d="M37.5215 41.8548C36.5791 42.0401 35.6227 42.1796 34.6594 42.273C35.629 42.2404 36.5971 42.1602 37.5497 42.0333C39.7817 41.7386 42.0175 41.1794 44.1929 40.3727C48.277 38.8614 52.2311 36.4646 55.9451 33.2477C57.6562 31.7666 59.3066 30.1196 60.8499 28.3511C61.6167 27.473 62.3548 26.5651 63.0448 25.6539C63.4047 25.1798 63.7504 24.7052 64.0733 24.2423C64.4321 23.7259 64.736 23.2742 65.0521 22.7554C65.3827 22.2117 65.2096 21.4994 64.6645 21.1687C64.4832 21.0584 64.276 21 64.0665 21C63.6595 21 63.2899 21.2076 63.0779 21.5548C63.0648 21.5762 63.0541 21.5961 63.0439 21.6146C63.0409 21.62 63.0385 21.6253 63.0346 21.6307C62.8348 22.0138 62.5698 22.4763 62.2309 23.0344C61.9532 23.491 61.6522 23.9637 61.3381 24.4368C60.7293 25.3534 60.0757 26.2681 59.3946 27.154C58.0151 28.9512 56.5228 30.6394 54.9605 32.172C51.5503 35.518 47.8524 38.0864 43.9668 39.8072C41.8769 40.7369 39.7087 41.4244 37.5216 41.8548L37.5215 41.8548Z" fill="url(#paint0_linear_110_178)"/>
<path d="M44.3841 40.8863C42.1965 41.6968 39.9242 42.2716 37.6223 42.576C36.3007 42.7515 34.9712 42.8381 33.6438 42.8381C32.6581 42.8381 31.6755 42.7909 30.6981 42.6961C26.102 42.2589 21.6898 40.7992 17.6376 38.754C21.8105 40.5449 26.2647 41.7027 30.7528 41.8476C31.0888 41.8593 31.4248 41.8641 31.7608 41.8641C33.664 41.8641 35.5614 41.6813 37.4155 41.3171C39.5983 40.8882 41.7223 40.206 43.7446 39.3089C47.7007 37.5564 51.2527 34.9982 54.3517 32.0005C52.9075 31.1423 49.4789 29.8974 44.0412 32.5923C40.794 34.2018 36.4421 35.202 32.0789 35.5861C32.5938 35.9387 33.1307 36.2596 33.6943 36.5343C34.3755 36.864 35.0865 37.1402 35.8275 37.3323C36.5671 37.5302 37.3325 37.6576 38.1187 37.6649C37.3519 37.8676 36.5389 37.8676 35.7428 37.7908C34.9454 37.6994 34.1547 37.5078 33.4006 37.2156C32.4199 36.8412 31.5003 36.3165 30.6611 35.6878C29.1707 35.7744 27.6944 35.7875 26.2736 35.7282C26.5328 35.9917 26.8056 36.2431 27.0934 36.479C27.6813 36.9691 28.3232 37.4067 29.0336 37.7437C28.2522 37.6056 27.5146 37.2642 26.8246 36.8592C26.2688 36.5212 25.7485 36.1201 25.271 35.6727C22.2149 35.4671 19.4802 34.9137 17.5377 34.0044C11.6376 31.244 7.80145 27.2893 5.21997 31.4745C5.21997 31.4745 10.3295 42.0928 19.3062 46.5927C19.9369 46.2066 20.5486 45.7685 21.1136 45.2311C20.9799 45.6118 20.7733 45.9653 20.5467 46.3018C20.3959 46.5274 20.2282 46.7419 20.0502 46.9481C21.9699 47.8175 23.9329 48.4413 25.9033 48.8484C26.9341 48.6826 27.945 48.4244 28.9214 48.0441C29.61 47.7777 30.281 47.4504 30.9277 47.0604C31.5744 46.6685 32.2021 46.2212 32.7798 45.6712C32.6461 46.052 32.4394 46.4055 32.2138 46.742C31.9872 47.0814 31.7237 47.396 31.4421 47.694C30.8742 48.2877 30.2119 48.7973 29.4956 49.2184C29.4217 49.2617 29.3449 49.3001 29.2691 49.3419C32.9976 49.6682 36.6713 49.2792 40.0371 48.3855C40.7256 47.9605 41.3826 47.4835 41.9938 46.9452C42.5496 46.4585 43.0665 45.9207 43.5401 45.3313C44.0128 44.7401 44.448 44.105 44.802 43.3897C44.8068 43.7928 44.7344 44.1954 44.6381 44.5907C44.5418 44.9866 44.4033 45.3726 44.2408 45.75C44.0016 46.297 43.7001 46.8192 43.35 47.3093C46.7684 45.9829 49.7102 44.1336 51.8433 42.036C51.8453 41.8541 51.8438 41.6727 51.8385 41.4894C51.8132 40.7338 51.7296 39.9684 51.5331 39.1947C51.7996 39.4982 52.0062 39.8502 52.1896 40.2125C52.3563 40.5407 52.4905 40.885 52.6048 41.238C54.5391 39.0713 55.6079 36.6881 55.4809 34.3614C52.1554 37.1039 48.4279 39.3912 44.3837 40.8869L44.3841 40.8863Z" fill="url(#paint1_linear_110_178)"/>
<defs>
<linearGradient id="paint0_linear_110_178" x1="30.1657" y1="20.4749" x2="66.9232" y2="24.5618" gradientUnits="userSpaceOnUse">
<stop offset="0.270833" stop-color="#A3A3A3"/>
<stop offset="0.412103" stop-color="#CCCCCC"/>
<stop offset="0.551716" stop-color="white"/>
<stop offset="0.677083" stop-color="#CCCCCC"/>
<stop offset="0.833333" stop-color="#A3A3A3"/>
</linearGradient>
<linearGradient id="paint1_linear_110_178" x1="-2.1721" y1="29.1619" x2="56.766" y2="40.7403" gradientUnits="userSpaceOnUse">
<stop offset="0.270833" stop-color="#A3A3A3"/>
<stop offset="0.412103" stop-color="#CCCCCC"/>
<stop offset="0.551716" stop-color="white"/>
<stop offset="0.677083" stop-color="#CCCCCC"/>
<stop offset="0.833333" stop-color="#A3A3A3"/>
</linearGradient>
</defs>
</svg>
