<svg width="24" height="24" viewBox="0 0 24 24" fill="none" xmlns="http://www.w3.org/2000/svg">
<path d="M4.71429 6H18.4286C19.3714 6 20.1429 6.675 20.1429 7.5V16.5C20.1429 17.325 19.3714 18 18.4286 18H4.71429C3.77143 18 3 17.325 3 16.5V7.5C3 6.675 3.77143 6 4.71429 6Z" stroke="black" stroke-width="0.6" stroke-linecap="round" stroke-linejoin="round"/>
<path d="M20.1429 7.71429L11.5714 13.7143L3 7.71429" stroke="black" stroke-width="0.6" stroke-linecap="round" stroke-linejoin="round"/>
</svg>
