<svg width="673" height="739" viewBox="0 0 673 739" fill="none" xmlns="http://www.w3.org/2000/svg">
<g clip-path="url(#clip0_1_2)">
<path d="M532.18 161.624C510.72 155.806 488.953 151.186 466.98 147.784C430.966 142.203 394.658 138.714 358.24 137.334C343.07 136.714 327.62 136.394 312 136.394C299.62 136.394 287.34 136.594 275.23 136.994C239.706 138.044 204.266 141.038 169.07 145.964C143.016 149.552 117.214 154.782 91.8199 161.624C32.6099 177.994 6.10352e-05 199.934 6.10352e-05 223.394C6.10352e-05 246.854 32.6099 268.794 91.8199 285.164C133.46 296.684 184.8 304.534 240.74 308.134C263.83 309.634 287.7 310.394 312 310.394C336.38 310.394 360.33 309.624 383.49 308.124C434.4 304.834 481.5 298.024 520.92 288.124C521.13 288.064 521.33 288.014 521.54 287.964C524.2 287.304 526.82 286.614 529.41 285.924C530.34 285.664 531.26 285.414 532.18 285.164C532.232 285.143 532.285 285.126 532.34 285.114C533.22 284.874 534.09 284.624 534.96 284.384C536.7 283.884 538.42 283.394 540.11 282.884C540.19 282.864 540.26 282.844 540.33 282.824C541.8 282.384 543.24 281.944 544.67 281.504C545.84 281.134 547 280.774 548.15 280.404C548.99 280.134 549.82 279.864 550.64 279.594C551.24 279.394 551.83 279.204 552.41 279.004C553.2 278.744 553.99 278.474 554.77 278.204C555.1 278.094 555.43 277.984 555.75 277.864C556.5 277.614 557.23 277.354 557.96 277.094C558.75 276.814 559.54 276.524 560.32 276.244C560.97 276.014 561.62 275.774 562.26 275.534C562.8 275.324 563.33 275.124 563.87 274.924C565.34 274.374 566.78 273.804 568.2 273.244C568.91 272.954 569.62 272.674 570.32 272.384C571.01 272.104 571.71 271.814 572.39 271.524C573.51 271.054 574.61 270.584 575.69 270.114C576.21 269.874 576.74 269.644 577.25 269.424C577.64 269.244 578.02 269.074 578.41 268.894C578.69 268.774 578.97 268.644 579.24 268.514C580.25 268.054 581.25 267.584 582.23 267.114C585.99 265.314 589.5 263.474 592.76 261.594C613.21 249.884 624 236.894 624 223.394C624 199.934 591.39 177.994 532.18 161.624ZM531.64 283.244C489.95 294.774 438.47 302.624 382.38 306.194C359.57 307.644 335.99 308.394 312 308.394C288.09 308.394 264.59 307.654 241.85 306.204C185.67 302.644 134.11 294.794 92.3599 283.244C34.0899 267.124 2.00006 245.874 2.00006 223.394C2.00332 221.408 2.25194 219.429 2.7403 217.504C7.83991 197.224 39.21 178.244 92.3599 163.544C117.562 156.755 143.166 151.555 169.02 147.974C204.428 143.02 240.082 140.016 275.82 138.974C287.74 138.584 299.8 138.391 312 138.394C327.41 138.394 342.65 138.704 357.63 139.304C394.26 140.672 430.779 144.178 467 149.804C488.783 153.191 510.363 157.778 531.64 163.544C584.78 178.244 616.14 197.214 621.25 217.484C621.746 219.415 621.998 221.4 622 223.394C622 245.874 589.91 267.124 531.64 283.244Z" fill="#3F3D56"/>
<path d="M531.64 283.244C489.95 294.774 438.47 302.624 382.38 306.194C359.57 307.644 335.99 308.394 312 308.394C288.09 308.394 264.59 307.654 241.85 306.204C185.67 302.644 134.11 294.794 92.3599 283.244C34.0899 267.124 2.00006 245.874 2.00006 223.394C2.00332 221.408 2.25194 219.429 2.7403 217.504C7.83991 197.224 39.21 178.244 92.3599 163.544C117.562 156.755 143.166 151.555 169.02 147.974C204.428 143.02 240.082 140.016 275.82 138.974C287.74 138.584 299.8 138.391 312 138.394C327.41 138.394 342.65 138.704 357.63 139.304C394.26 140.672 430.779 144.178 467 149.804C488.783 153.191 510.363 157.778 531.64 163.544C584.78 178.244 616.14 197.214 621.25 217.484C621.746 219.415 621.998 221.4 622 223.394C622 245.874 589.91 267.124 531.64 283.244Z" fill="white"/>
<path d="M623.43 224.304C623.43 237.664 612.42 250.304 592.76 261.594C589.49 263.474 585.97 265.314 582.23 267.114C581.25 267.584 580.25 268.054 579.24 268.514C578.97 268.644 578.69 268.774 578.41 268.894C578.02 269.074 577.64 269.244 577.25 269.424C576.74 269.644 576.21 269.874 575.69 270.114C574.61 270.584 573.51 271.054 572.39 271.524C571.71 271.814 571.01 272.104 570.32 272.384C569.62 272.674 568.91 272.954 568.2 273.244C566.78 273.804 565.34 274.374 563.87 274.924C563.33 275.124 562.8 275.324 562.26 275.534C561.62 275.774 560.97 276.014 560.32 276.244C559.54 276.524 558.75 276.814 557.96 277.094C557.23 277.354 556.5 277.614 555.75 277.864C555.43 277.984 555.1 278.094 554.77 278.204C553.99 278.474 553.2 278.744 552.41 279.004C551.83 279.204 551.24 279.394 550.64 279.594C549.82 279.864 548.99 280.134 548.15 280.404C547 280.774 545.84 281.134 544.67 281.504C543.24 281.944 541.8 282.384 540.33 282.824C540.26 282.844 540.19 282.864 540.11 282.884C538.42 283.394 536.7 283.884 534.96 284.384C534.09 284.624 533.22 284.874 532.34 285.114C532.285 285.126 532.232 285.143 532.18 285.164C531.26 285.414 530.34 285.664 529.41 285.924C526.83 286.604 524.2 287.294 521.54 287.964C521.33 288.014 521.13 288.064 520.92 288.124C482.57 297.704 435.52 304.684 383.45 308.054C360.64 309.524 336.86 310.304 312.43 310.304C287.78 310.304 263.8 309.514 240.81 308.014C103.57 299.064 1.43018 264.984 1.43018 224.304C1.44098 221.829 1.81828 219.369 2.5498 217.004C2.60986 217.174 2.66991 217.334 2.74023 217.504C17.0098 254.984 118.28 285.274 249.68 292.664C269.81 293.804 290.66 294.394 312 294.394C333.43 294.394 354.36 293.794 374.57 292.654C505.86 285.234 607.03 254.934 621.25 217.484C621.49 216.884 621.7 216.284 621.88 215.684C622.894 218.445 623.418 221.362 623.43 224.304Z" fill="#3F3D56"/>
<path d="M91.6693 213.54C75.0266 213.54 57.3386 209.959 57.3386 203.323C57.3386 196.687 75.0266 193.106 91.6693 193.106C108.312 193.106 126 196.687 126 203.323C126 209.959 108.312 213.54 91.6693 213.54ZM91.6693 195.106C72.6163 195.106 59.3386 199.437 59.3386 203.323C59.3386 207.209 72.6163 211.54 91.6693 211.54C110.722 211.54 124 207.209 124 203.323C124 199.437 110.722 195.106 91.6693 195.106Z" fill="#3F3D56"/>
<path d="M162.669 260.54C146.027 260.54 128.339 256.959 128.339 250.323C128.339 243.687 146.027 240.106 162.669 240.106C179.312 240.106 197 243.687 197 250.323C197 256.959 179.312 260.54 162.669 260.54ZM162.669 242.106C143.616 242.106 130.339 246.437 130.339 250.323C130.339 254.209 143.616 258.54 162.669 258.54C181.722 258.54 195 254.209 195 250.323C195 246.437 181.722 242.106 162.669 242.106Z" fill="#3F3D56"/>
<path d="M531.669 213.54C515.027 213.54 497.339 209.959 497.339 203.323C497.339 196.687 515.027 193.106 531.669 193.106C548.312 193.106 566 196.687 566 203.323C566 209.959 548.312 213.54 531.669 213.54ZM531.669 195.106C512.616 195.106 499.339 199.437 499.339 203.323C499.339 207.209 512.616 211.54 531.669 211.54C550.722 211.54 564 207.209 564 203.323C564 199.437 550.722 195.106 531.669 195.106Z" fill="#3F3D56"/>
<path d="M460.669 260.54C444.027 260.54 426.339 256.959 426.339 250.323C426.339 243.687 444.027 240.106 460.669 240.106C477.312 240.106 495 243.687 495 250.323C495 256.959 477.312 260.54 460.669 260.54ZM460.669 242.106C441.616 242.106 428.339 246.437 428.339 250.323C428.339 254.209 441.616 258.54 460.669 258.54C479.722 258.54 493 254.209 493 250.323C493 246.437 479.722 242.106 460.669 242.106Z" fill="#3F3D56"/>
<path d="M311.669 282.54C295.027 282.54 277.339 278.959 277.339 272.323C277.339 265.687 295.027 262.106 311.669 262.106C328.312 262.106 346 265.687 346 272.323C346 278.959 328.312 282.54 311.669 282.54ZM311.669 264.106C292.616 264.106 279.339 268.437 279.339 272.323C279.339 276.209 292.616 280.54 311.669 280.54C330.722 280.54 344 276.209 344 272.323C344 268.437 330.722 264.106 311.669 264.106Z" fill="#3F3D56"/>
<path d="M463.915 189.5C416.435 187.48 364.5 189.57 309 189.57C258.4 189.57 208 189.57 166 191.58C166.01 190.91 166.02 190.24 166.05 189.57C167.206 150.679 183.529 113.784 211.53 86.7698C239.53 59.7554 276.987 44.7651 315.894 45.0028C354.801 45.2405 392.071 60.6873 419.739 88.0418C447.408 115.396 463.279 152.488 463.96 191.39C463.917 189.57 463.852 185.66 463.915 189.5Z" fill="#6C63FF"/>
<path d="M312.245 721.025C335.448 721.025 354.257 702.215 354.257 679.012C354.257 655.81 335.448 637 312.245 637C289.042 637 270.233 655.81 270.233 679.012C270.233 702.215 289.042 721.025 312.245 721.025Z" fill="#2F2E41"/>
<path d="M294.621 709.041L287.403 730.74L299.514 734.768L306.732 713.07L294.621 709.041Z" fill="#2F2E41"/>
<path d="M300.601 732.043C300.158 729.885 295.135 729.094 289.38 730.275C283.626 731.456 279.321 734.163 279.764 736.321C280.207 738.479 285.23 739.27 290.985 738.089C296.739 736.908 301.044 734.201 300.601 732.043Z" fill="#2F2E41"/>
<path d="M332.887 708.041L320.776 712.07L327.994 733.768L340.105 729.74L332.887 708.041Z" fill="#2F2E41"/>
<path d="M336.523 737.089C342.277 738.27 347.301 737.479 347.744 735.321C348.187 733.163 343.882 730.456 338.127 729.275C332.373 728.094 327.35 728.885 326.907 731.043C326.464 733.201 330.769 735.908 336.523 737.089Z" fill="#2F2E41"/>
<path d="M309.304 683.095C317.234 683.095 323.662 676.666 323.662 668.736C323.662 660.806 317.234 654.377 309.304 654.377C301.374 654.377 294.945 660.806 294.945 668.736C294.945 676.666 301.374 683.095 309.304 683.095Z" fill="white"/>
<path d="M319.158 672.158C321.02 670.297 321.009 667.269 319.135 665.394C317.26 663.52 314.232 663.509 312.37 665.37C310.509 667.232 310.52 670.26 312.394 672.135C314.269 674.009 317.297 674.02 319.158 672.158Z" fill="#3F3D56"/>
<path d="M369.604 701.011C372.367 698.639 368.481 689.58 360.925 680.777C353.368 671.975 345.002 666.762 342.238 669.134C339.475 671.507 343.361 680.566 350.917 689.368C358.474 698.171 366.84 703.384 369.604 701.011Z" fill="#2F2E41"/>
<path d="M273.69 689.368C281.247 680.566 285.133 671.507 282.369 669.134C279.606 666.762 271.24 671.975 263.683 680.777C256.126 689.58 252.24 698.639 255.004 701.011C257.767 703.384 266.133 698.171 273.69 689.368Z" fill="#2F2E41"/>
<path d="M323.784 695.569C324.238 698.067 323.682 700.643 322.238 702.73C320.793 704.818 318.578 706.246 316.08 706.701C313.583 707.156 311.007 706.599 308.919 705.155C306.831 703.71 305.403 701.495 304.948 698.998L304.945 698.979C304.003 693.777 308.298 699.939 313.5 698.998C318.702 698.056 322.842 690.367 323.784 695.569Z" fill="white"/>
<path d="M266 495.394C265.47 495.394 264.961 495.183 264.586 494.808C264.211 494.433 264 493.924 264 493.394V375.394C264 374.864 264.211 374.355 264.586 373.98C264.961 373.605 265.47 373.394 266 373.394C266.53 373.394 267.039 373.605 267.414 373.98C267.789 374.355 268 374.864 268 375.394V493.394C268 493.924 267.789 494.433 267.414 494.808C267.039 495.183 266.53 495.394 266 495.394Z" fill="#CCCCCC"/>
<path d="M236 601.394C235.47 601.394 234.961 601.183 234.586 600.808C234.211 600.433 234 599.924 234 599.394V513.394C234 512.864 234.211 512.355 234.586 511.98C234.961 511.605 235.47 511.394 236 511.394C236.53 511.394 237.039 511.605 237.414 511.98C237.789 512.355 238 512.864 238 513.394V599.394C238 599.924 237.789 600.433 237.414 600.808C237.039 601.183 236.53 601.394 236 601.394Z" fill="#CCCCCC"/>
<path d="M313 530.394C312.47 530.394 311.961 530.183 311.586 529.808C311.211 529.433 311 528.924 311 528.394V410.394C311 409.864 311.211 409.355 311.586 408.98C311.961 408.605 312.47 408.394 313 408.394C313.53 408.394 314.039 408.605 314.414 408.98C314.789 409.355 315 409.864 315 410.394V528.394C315 528.924 314.789 529.433 314.414 529.808C314.039 530.183 313.53 530.394 313 530.394Z" fill="#CCCCCC"/>
<path d="M284 615.394C283.47 615.394 282.961 615.183 282.586 614.808C282.211 614.433 282 613.924 282 613.394V565.394C282 564.864 282.211 564.355 282.586 563.98C282.961 563.605 283.47 563.394 284 563.394C284.53 563.394 285.039 563.605 285.414 563.98C285.789 564.355 286 564.864 286 565.394V613.394C286 613.924 285.789 614.433 285.414 614.808C285.039 615.183 284.53 615.394 284 615.394Z" fill="#CCCCCC"/>
<path d="M325 369.394C324.47 369.394 323.961 369.183 323.586 368.808C323.211 368.433 323 367.924 323 367.394V319.394C323 318.864 323.211 318.355 323.586 317.98C323.961 317.605 324.47 317.394 325 317.394C325.53 317.394 326.039 317.605 326.414 317.98C326.789 318.355 327 318.864 327 319.394V367.394C327 367.924 326.789 368.433 326.414 368.808C326.039 369.183 325.53 369.394 325 369.394Z" fill="#CCCCCC"/>
<path d="M225 390.394C224.47 390.394 223.961 390.183 223.586 389.808C223.211 389.433 223 388.924 223 388.394V340.394C223 339.864 223.211 339.355 223.586 338.98C223.961 338.605 224.47 338.394 225 338.394C225.53 338.394 226.039 338.605 226.414 338.98C226.789 339.355 227 339.864 227 340.394V388.394C227 388.924 226.789 389.433 226.414 389.808C226.039 390.183 225.53 390.394 225 390.394Z" fill="#CCCCCC"/>
<path d="M399 395.394C398.47 395.394 397.961 395.183 397.586 394.808C397.211 394.433 397 393.924 397 393.394V345.394C397 344.864 397.211 344.355 397.586 343.98C397.961 343.605 398.47 343.394 399 343.394C399.53 343.394 400.039 343.605 400.414 343.98C400.789 344.355 401 344.864 401 345.394V393.394C401 393.924 400.789 394.433 400.414 394.808C400.039 395.183 399.53 395.394 399 395.394Z" fill="#CCCCCC"/>
<path d="M395 545.394C394.47 545.394 393.961 545.183 393.586 544.808C393.211 544.433 393 543.924 393 543.394V485.394C393 484.864 393.211 484.355 393.586 483.98C393.961 483.605 394.47 483.394 395 483.394C395.53 483.394 396.039 483.605 396.414 483.98C396.789 484.355 397 484.864 397 485.394V543.394C397 543.924 396.789 544.433 396.414 544.808C396.039 545.183 395.53 545.394 395 545.394Z" fill="#CCCCCC"/>
<path d="M355 596.394C354.47 596.394 353.961 596.183 353.586 595.808C353.211 595.433 353 594.924 353 594.394V508.394C353 507.864 353.211 507.355 353.586 506.98C353.961 506.605 354.47 506.394 355 506.394C355.53 506.394 356.039 506.605 356.414 506.98C356.789 507.355 357 507.864 357 508.394V594.394C357 594.924 356.789 595.433 356.414 595.808C356.039 596.183 355.53 596.394 355 596.394Z" fill="#CCCCCC"/>
<path d="M363 449.394C362.47 449.394 361.961 449.183 361.586 448.808C361.211 448.433 361 447.924 361 447.394V329.394C361 328.864 361.211 328.355 361.586 327.98C361.961 327.605 362.47 327.394 363 327.394C363.53 327.394 364.039 327.605 364.414 327.98C364.789 328.355 365 328.864 365 329.394V447.394C365 447.924 364.789 448.433 364.414 448.808C364.039 449.183 363.53 449.394 363 449.394Z" fill="#CCCCCC"/>
<path d="M589.719 690.095C597.24 667.531 585.045 643.141 562.48 635.619C539.916 628.097 515.526 640.292 508.004 662.857C500.482 685.422 512.677 709.812 535.242 717.334C557.807 724.855 582.197 712.66 589.719 690.095Z" fill="#2F2E41"/>
<path d="M567.09 710.276H554.006V733.718H567.09V710.276Z" fill="#2F2E41"/>
<path d="M556.187 738.079C562.209 738.079 567.09 736.248 567.09 733.99C567.09 731.732 562.209 729.902 556.187 729.902C550.165 729.902 545.284 731.732 545.284 733.99C545.284 736.248 550.165 738.079 556.187 738.079Z" fill="#2F2E41"/>
<path d="M540.923 710.276H527.839V733.718H540.923V710.276Z" fill="#2F2E41"/>
<path d="M530.02 737.534C536.041 737.534 540.923 735.703 540.923 733.445C540.923 731.187 536.041 729.356 530.02 729.356C523.998 729.356 519.116 731.187 519.116 733.445C519.116 735.703 523.998 737.534 530.02 737.534Z" fill="#2F2E41"/>
<path d="M608.492 700.465C611.355 698.068 607.486 688.733 599.852 679.615C592.217 670.496 583.707 665.047 580.845 667.444C577.982 669.84 581.851 679.175 589.485 688.294C597.12 697.413 605.63 702.862 608.492 700.465Z" fill="#2F2E41"/>
<path d="M514.233 670.78C511.593 668.14 502.636 672.817 494.227 681.227C485.817 689.636 481.14 698.593 483.78 701.233C486.42 703.873 495.377 699.196 503.787 690.787C512.196 682.377 516.873 673.42 514.233 670.78Z" fill="#2F2E41"/>
<path d="M542.423 681.747C550.353 681.747 556.781 675.319 556.781 667.389C556.781 659.459 550.353 653.03 542.423 653.03C534.493 653.03 528.064 659.459 528.064 667.389C528.064 675.319 534.493 681.747 542.423 681.747Z" fill="white"/>
<path d="M536.085 672.546C538.729 672.546 540.872 670.403 540.872 667.76C540.872 665.117 538.729 662.974 536.085 662.974C533.442 662.974 531.299 665.117 531.299 667.76C531.299 670.403 533.442 672.546 536.085 672.546Z" fill="#3F3D56"/>
<path d="M542.299 703.368C545.613 703.368 548.299 700.682 548.299 697.368C548.299 694.054 545.314 696 542 696C538.686 696 536.299 694.054 536.299 697.368C536.299 700.682 538.985 703.368 542.299 703.368Z" fill="white"/>
</g>
<defs>
<clipPath id="clip0_1_2">
<rect width="672.531" height="738.394" fill="white"/>
</clipPath>
</defs>
</svg>
