{
	"project_name": "Viktor Kotovskiy",
	"page_list": {
		"Site": [
			{
				"link": "lilsolid-referral-program",
				"name": "LIL solid referral program",
				"img": "../img/lilsolid-referral-program.png"
			},
			{
				"link": "sneakers",
				"name": "Sneakers",
				"img": "../img/sneakers.png"
			}
		],
		"Email": [
			{
				"link": "iqos-email",
				"name": "IQOS",
				"img": "../img/IQOS.png"
			},
			{
				"link": "iqos-email-digest",
				"name": "IQOS-digest",
				"img": "../img/IQOS-digest.png"
			},
			{
				"link": "lil-email",
				"name": "lil solid",
				"img": "../img/lil-email.png"
			}
		],
		"Organisms": [
			{
				"link": "neoformism-controlers",
				"name": "Neoformism controlers",
				"img": "../img/neoformism.png"
			},
			{
				"link": "animate-text",
				"name": "Animate Text",
				"img": "../img/animate-text.png"
			},
			{
				"link": "btn-background",
				"name": "Button background",
				"img": "../img/btn-background.png"
			},
			{
				"link": "btn-hover",
				"name": "Button hover",
				"img": "../img/btn-hover.png"
			}
		],
		"SVG animation": [
			{
				"link": "ufo-animation",
				"name": "UFO svg animation",
				"img": "../img/ufo-animation.gif"
			},
			{
				"link": "signature-animation",
				"name": "Signature svg animation",
				"img": "../img/signature.gif"
			}
			],
		"Canvas animation": [
			{
				"link": "game-arkanoid",
				"name": "Arkanoid game",
				"img": "../img/game-arkanoid.png"
			}
		]
	}
}
